…
GDP_Countries

## # A tibble: 10,560 x 3
## # Groups:   year [48]
##     year Country             Gross_Domestic_Product
##    <dbl> <chr>                                <dbl>
##  1  1970 Afghanistan                    6350432433.
##  2  1970 Albania                        3351761022.
##  3  1970 Algeria                       46680448513.
##  4  1970 Andorra                        1051249180.
##  5  1970 Angola                        23042593319.
##  6  1970 Anguilla                         32264914.
##  7  1970 Antigua and Barbuda             262655839.
##  8  1970 Argentina                    160111327434.
##  9  1970 Armenia                                NA 
## 10  1970 Aruba                           234175779.
## # … with 10,550 more rows
…
#joining the UN GDP values with the calculated GDP and computing the percentage difference
GDP_diff<- inner_join(GDP_Countries, UN_GDP, by=c("Country", "year")) %>% 
  mutate(percentage_difference_in_GDP= (Gross_Domestic_Product-
                                          United_Nations_Data_GDP)/ United_Nations_Data_GDP) %>% 
  select(Country, year, percentage_difference_in_GDP)

paste("Percentage difference in GDP calculated vs GDP figure included in the dataframe:")

## [1] "Percentage difference in GDP calculated vs GDP figure included in the dataframe:"

GDP_diff

## # A tibble: 10,560 x 3
## # Groups:   year [48]
##    Country             year  percentage_difference_in_GDP
##    <chr>               <chr>                        <dbl>
##  1 Afghanistan         1970                      -0.408  
##  2 Albania             1970                      -0.0768 
##  3 Algeria             1970                       0.171  
##  4 Andorra             1970                       0.00429
##  5 Angola              1970                      -0.0383 
##  6 Anguilla            1970                      -0.0728 
##  7 Antigua and Barbuda 1970                      -0.00565
##  8 Argentina           1970                      -0.0871 
##  9 Armenia             1970                      NA      
## 10 Aruba               1970                      -0.0200 
## # … with 10,550 more rows
…
