GDP Components · David Nazareth
…
GDP_Calculated

## # A tibble: 10,560 x 3
## # Groups:   year [48]
##     year Country             Gross_Domestic_Product
##    <dbl> <chr>                                <dbl>
##  1  1970 Afghanistan                    6350432433.
##  2  1970 Albania                        3351761022.
##  3  1970 Algeria                       46680448513.
##  4  1970 Andorra                        1051249180.
##  5  1970 Angola                        23042593319.
##  6  1970 Anguilla                         32264914.
##  7  1970 Antigua and Barbuda             262655839.
##  8  1970 Argentina                    160111327434.
##  9  1970 Armenia                                NA 
## 10  1970 Aruba                           234175779.
## # … with 10,550 more rows
…
#joining the UN GDP values with the calculated GDP and computing the percentage difference
GDP_Difference<- inner_join(GDP_Calculated, UN_GDP, by=c("Country", "year")) %>% 
  mutate(percentage_difference_in_GDP= (Gross_Domestic_Product-
                                          United_Nations_Data_GDP)*100/ United_Nations_Data_GDP) %>% 
  #selecting only the columns that we want
  select(Country, year, percentage_difference_in_GDP) 

paste("Percentage difference in GDP calculated vs GDP figure included in the dataframe:")

## [1] "Percentage difference in GDP calculated vs GDP figure included in the dataframe:"

GDP_Difference

## # A tibble: 10,560 x 3
## # Groups:   year [48]
##    Country             year  percentage_difference_in_GDP
##    <chr>               <chr>                        <dbl>
##  1 Afghanistan         1970                       -40.8  
##  2 Albania             1970                        -7.68 
##  3 Algeria             1970                        17.1  
##  4 Andorra             1970                         0.429
##  5 Angola              1970                        -3.83 
##  6 Anguilla            1970                        -7.28 
##  7 Antigua and Barbuda 1970                        -0.565
##  8 Argentina           1970                        -8.71 
##  9 Armenia             1970                        NA    
## 10 Aruba               1970                        -2.00 
## # … with 10,550 more rows
…
